 10 &   0.05 &      0.01  &      1.00 &      1.1e+02 &      0.13  \\
 10 &   0.05 &      0.001 &      1.00 &      1.0e+03 &      2.56  \\
 10 &   0.01 &      0.01  &      1.00 &      1.2e+02 &      0.14  \\
 10 &   0.01 &      0.001 &      1.00 &      1.2e+03 &      2.79  \\
 20 &   0.05 &      0.01  &      1.00 &      6.0e+02 &      1.49  \\
 20 &   0.05 &      0.001 &      1.00 &      6.2e+03 &      16.73 \\
 20 &   0.01 &      0.01  &      0.99 &      1.2e+03 &      2.97  \\
 20 &   0.01 &      0.001 &      1.00 &      1.1e+04 &      28.99 \\